[
    {
        "prod": {
            "id": "CN1",
            "category": "Cameras",
            "brand": "DSLR",
            "name": "Sony EOS 3000D DSLR Camera Single Kit with 18-55 lens (16 GB Memory Card & Carry Case)  (Black)",
            "img": "https://i.ibb.co/Q9M7Xph/sony-1.jpg",
            "rating": "https://i.ibb.co/Q9M7Xph/sony-1.jpg",
            "ratingDesc": "43,156 Ratings & 3,440 Reviews",
            "details": [
                "Self-Timer | Type C and Mini HDMI, |9 Auto Focus Points | 35x Optical Zoom., Effective Pixels: 18 MP APS-C CMOS sensor-which is 25 times larger than a typical Smartphone sensor., WiFi | Full HD | Video Recording at 1080 p on 30fps",
                "Effective Pixels: 18 MP",
                " Sensor Type: CMOS",
                " WiFi Available",
                " Full HD"
            ],
            "price": "12500",
            "assured": "true",
            "prevPrice": "13000",
            "discount": "16",
            "EMI": "",
            "exchange": "Upto ₹7,350 Off on Exchange",
            "ram": "",
            "popularity": "76670"
        },
        "pics": {
            "imgList": [
                "https://i.ibb.co/Q9M7Xph/sony-1.jpg",
                "https://i.ibb.co/nMYFw6R/sony-2.jpg",
                "https://i.ibb.co/j5kWYD3/sony-3.jpg"
            ],
            "brandImg": "https://i.ibb.co/Q9M7Xph/sony-1.jpg"
        }
    },
    {
        "prod": {
            "id": "SN1",
            "category": "Cameras",
            "brand": "DSLR",
            "name": "Sony Alpha 7M3 Mirrorless Camera Body Only  (Black)",
            "img": "https://i.ibb.co/M9kHjNg/camacr4.jpg",
            "rating": "https://i.ibb.co/M9kHjNg/camacr4.jpg",
            "ratingDesc": "43,156 Ratings & 3,440 Reviews",
            "details": [
                "Effective Pixels: 24.2 MP",
                "Sensor Type: CMOS",
                "WiFi Available",
                "XAVC S, AVCHD,"
            ],
            "price": "80000",
            "assured": "true",
            "prevPrice": "95000",
            "discount": "16",
            "EMI": "",
            "exchange": "Upto ₹7,350 Off on Exchange",
            "ram": "",
            "popularity": "80000"
        },
        "pics": {
            "imgList": [
                "https://i.ibb.co/Q9M7Xph/sony-1.jpg",
                "https://i.ibb.co/nMYFw6R/sony-2.jpg",
                "https://i.ibb.co/j5kWYD3/sony-3.jpg"
            ],
            "brandImg": "https://i.ibb.co/Q9M7Xph/sony-1.jpg"
        }
    },
    {
        "prod": {
            "id": "NK1",
            "category": "Cameras",
            "brand": "DSLR",
            "name": "Nikon D5600 DSLR Camera Body with Dual Lens: AF-P DX Nikkor 18 - 55 MM F/3.5-5.6G VR and 70-300 MM F/4.5-6.3G ED VR (16 GB SD Card)  (Black)",
            "img": "https://i.ibb.co/FYV108v/nikkon1.jpg",
            "rating": "https://i.ibb.co/FYV108v/nikkon1.jpg",
            "ratingDesc": "43,156 Ratings & 3,440 Reviews",
            "details": [
                "Effective Pixels: 24.2 MP",
                "Sensor Type: CMOS",
                "WiFi Available",
                "1080p recording at 30p"
            ],
            "price": "90000",
            "assured": "true",
            "prevPrice": "95000",
            "discount": "16",
            "EMI": "",
            "exchange": "Upto ₹7,350 Off on Exchange",
            "ram": "3",
            "popularity": "86670"
        },
        "pics": {
            "imgList": [
                "https://i.ibb.co/FYV108v/nikkon1.jpg",
                "https://i.ibb.co/FHfPXH3/nikkon2.jpg",
                "https://i.ibb.co/pdFYjGS/nikkon3.jpg"
            ],
            "brandImg": "https://i.ibb.co/FYV108v/nikkon1.jpg"
        }
    },
    {
        "prod": {
            "id": "NK2",
            "category": "Cameras",
            "brand": "DSLR",
            "name": "Nikon D3500 DSLR Camera AF-P DX NIKKOR 18-55mm f/3.5-5.6G VR  (Black)",
            "img": "https://i.ibb.co/F4m49Yk/nikkon4.jpg",
            "rating": "https://i.ibb.co/F4m49Yk/nikkon4.jpg",
            "ratingDesc": "43,156 Ratings & 3,440 Reviews",
            "details": [
                "Effective Pixels: 24.2 MP",
                "Sensor Type: CMOS",
                "WiFi Available",
                "1080p recording at 30p"
            ],
            "price": "90000",
            "assured": "true",
            "prevPrice": "95000",
            "discount": "16",
            "EMI": "",
            "exchange": "Upto ₹7,350 Off on Exchange",
            "ram": "3",
            "popularity": "86670"
        },
        "pics": {
            "imgList": [
                "https://i.ibb.co/F4m49Yk/nikkon4.jpg",
                "https://i.ibb.co/rsDfqsk/nikkon5.jpg",
                "https://i.ibb.co/gF5fMFX/nikkon6.jpg"
            ],
            "brandImg": "https://i.ibb.co/yBp4qH1/camacr91.jpg"
        }
    },
    {
        "prod": {
            "id": "SN2",
            "category": "Cameras",
            "brand": "DSLR",
            "name": "Sony ILCE-6100L/B IN5 Mirrorless Camera With 16-50 mm Power Zoom Lens  (Black)",
            "img": "https://i.ibb.co/9GNj2qw/cannon1.jpg",
            "rating": "https://i.ibb.co/9GNj2qw/cannon1.jpg",
            "ratingDesc": "43,156 Ratings & 3,440 Reviews",
            "details": [
                "Effective Pixels: 24.2 MP",
                "Sensor Type: CMOS",
                "WiFi Available",
                "1080p recording at 30p"
            ],
            "price": "85000",
            "assured": "true",
            "prevPrice": "95000",
            "discount": "14",
            "EMI": "",
            "exchange": "Upto ₹7,350 Off on Exchange",
            "ram": "",
            "popularity": "96000"
        },
        "pics": {
            "imgList": [
                "https://i.ibb.co/9GNj2qw/cannon1.jpg",
                "https://i.ibb.co/KVX4h65/cannon2.jpg",
                "https://i.ibb.co/LzVywxH/connon3.jpg"
            ],
            "brandImg": "https://i.ibb.co/p21cdsw/apple1.jpg"
        }
    },
    {
        "prod": {
            "id": "LN1",
            "category": "Cameras",
            "brand": "Lens",
            "name": "Yongnuo 50mm f1.8 Canon Lens  (Black, 50)",
            "img": "https://i.ibb.co/PtTVBNF/len1.jpg",
            "rating": "https://i.ibb.co/PtTVBNF/len1.jpg",
            "ratingDesc": "43,156 Ratings & 3,440 Reviews",
            "details": [
                "Lens Mount: EF",
                " Designed For: Canon DSLRs",
                " Focal Length: 50 mm",
                " Lens Type: Standard",
                " Prime Lens"
            ],
            "price": "45000",
            "assured": "false",
            "prevPrice": "55000",
            "discount": "16",
            "EMI": "",
            "exchange": "Upto ₹7,350 Off on Exchange",
            "ram": "",
            "popularity": "55000"
        },
        "pics": {
            "imgList": [
                "https://i.ibb.co/PtTVBNF/len1.jpg",
                "https://i.ibb.co/DQNFKdD/len2.jpg",
                "https://i.ibb.co/5kB87QX/len3.jpg"
            ],
            "brandImg": "https://i.ibb.co/PtTVBNF/len1.jpg"
        }
    },
    {
        "prod": {
            "id": "LN2",
            "category": "Cameras",
            "brand": "Lens",
            "name": "Nikon AF-S NIKKOR 50mm f/1.8G Lens  (Black, 90))",
            "img": "https://i.ibb.co/x872PPd/len4.jpg",
            "rating": "https://i.ibb.co/x872PPd/len4.jpg",
            "ratingDesc": "43,156 Ratings & 3,440 Reviews",
            "details": [
                "Lens Mount: AF-S",
                "Designed For: Nikon DSLRs",
                "Focal Length: 90 mm",
                "Lens Type: Standard",
                "Prime Lens"
            ],
            "price": "2500",
            "assured": "true",
            "prevPrice": "3500",
            "discount": "4",
            "EMI": "",
            "exchange": "Upto ₹7,350 Off on Exchange",
            "ram": "",
            "popularity": "25000"
        },
        "pics": {
            "imgList": [
                "https://i.ibb.co/x872PPd/len4.jpg",
                "https://i.ibb.co/H4V5RXy/len5.jpg",
                "https://i.ibb.co/Syv3DqB/len6.jpg"
            ],
            "brandImg": "https://i.ibb.co/x872PPd/len4.jpg"
        }
    },
    {
        "prod": {
            "id": "LN3",
            "category": "Cameras",
            "brand": "Lens",
            "name": "Canon EF-S 24 mm f/2.8 STM Lens (Black)",
            "img": "https://i.ibb.co/Tvtxxxy/len7.jpg",
            "rating": "https://i.ibb.co/Tvtxxxy/len7.jpg",
            "ratingDesc": "43,156 Ratings & 3,440 Reviews",
            "details": [
                "Lens Mount: AF-S",
                "Designed For: Nikon DSLRs",
                "Focal Length: 90 mm",
                "Lens Type: Standard",
                "Prime Lens"
            ],
            "price": "32000",
            "assured": "true",
            "prevPrice": "45000",
            "discount": "16",
            "EMI": "",
            "exchange": "Upto ₹7,350 Off on Exchange",
            "ram": "",
            "popularity": "87000"
        },
        "pics": {
            "imgList": [
                "https://i.ibb.co/Tvtxxxy/len7.jpg",
                "https://i.ibb.co/W3jFcTT/len8.jpg",
                "https://i.ibb.co/vPbDVHH/len9.jpg"
            ],
            "brandImg": "https://i.ibb.co/6NH8dNh/acer-1a.jpg"
        }
    },
    {
        "prod": {
            "id": "LN4",
            "category": "Cameras",
            "brand": "Lens",
            "name": "Canon EF 75-300mm f/4-5.6 iii Lens  (Black, 17-70)",
            "img": "https://i.ibb.co/x872PPd/len4.jpg",
            "rating": "https://i.ibb.co/x872PPd/len4.jpg",
            "ratingDesc": "43,156 Ratings & 3,440 Reviews",
            "details": [
                "Lens Mount: AF-S",
                "Designed For: Nikon DSLRs",
                "Focal Length: 90 mm",
                "Lens Type: Standard",
                "Prime Lens"
            ],
            "price": "6200",
            "assured": "false",
            "prevPrice": "7200",
            "discount": "10",
            "EMI": "",
            "exchange": "Upto ₹7,350 Off on Exchange",
            "ram": "",
            "popularity": "65450"
        },
        "pics": {
            "imgList": [
                "https://i.ibb.co/x872PPd/len4.jpg",
                "https://i.ibb.co/H4V5RXy/len5.jpg",
                "https://i.ibb.co/Syv3DqB/len6.jpg"
            ],
            "brandImg": "https://i.ibb.co/x872PPd/len4.jpg"
        }
    },
    {
        "prod": {
            "id": "LN5",
            "category": "Cameras",
            "brand": "Lens",
            "name": "Canon EF 85 mm f/1.8 USM Lens  (Black, 55-250)",
            "img": "https://i.ibb.co/Tvtxxxy/len7.jpg",
            "rating": "https://i.ibb.co/Tvtxxxy/len7.jpg",
            "ratingDesc": "43,156 Ratings & 3,440 Reviews",
            "details": [
                "Lens Mount: AF-S",
                "Designed For: Nikon DSLRs",
                "Focal Length: 90 mm",
                "Lens Type: Standard",
                "Prime Lens"
            ],
            "price": "85000",
            "assured": "true",
            "prevPrice": "89999",
            "discount": "16",
            "EMI": "",
            "exchange": "Upto ₹7,350 Off on Exchange",
            "ram": "",
            "popularity": "45000"
        },
        "pics": {
            "imgList": [
                "https://i.ibb.co/Tvtxxxy/len7.jpg",
                "https://i.ibb.co/W3jFcTT/len8.jpg",
                "https://i.ibb.co/vPbDVHH/len9.jpg"
            ],
            "brandImg": "https://i.ibb.co/Tvtxxxy/len7.jpg"
        }
    },
    {
        "prod": {
            "id": "TP1",
            "category": "Cameras",
            "brand": "Tripods",
            "name": "BFBHARAT FACTORY TRIPOD3110 Tripod  (GREY BLACK, Supports Up to 200 g)",
            "img": "https://i.ibb.co/Mf41RXF/tp1.jpg",
            "rating": "https://i.ibb.co/Mf41RXF/tp1.jpg",
            "ratingDesc": "43,156 Ratings & 3,440 Reviews",
            "details": [
                "Designed For: Video Camera",
                "Load Capacity: 200 g",
                "Height Range: 20 mm - 400 mm",
                "Material: ALUMINUM"
            ],
            "price": "6500",
            "assured": "true",
            "prevPrice": "8500",
            "discount": "16",
            "EMI": "",
            "exchange": "Upto ₹7,350 Off on Exchange",
            "ram": "",
            "popularity": "100000"
        },
        "pics": {
            "imgList": [
                "https://i.ibb.co/Mf41RXF/tp1.jpg",
                "https://i.ibb.co/C1WhCdt/tp2.jpg",
                "https://i.ibb.co/ZcwCkGP/tp3.jpg"
            ],
            "brandImg": "https://i.ibb.co/6NH8dNh/acer-1a.jpg"
        }
    },
    {
        "prod": {
            "id": "TP2",
            "category": "Cameras",
            "brand": "Tripods",
            "name": "Kolorfish Telescopic Design Aluminium Alloy Tripod Bracket Portable Phone Holder Camera Mobile Phone Tripods Foldable Desktop Stand (Black) Tripod  (Black, Supports Up to 240 g)",
            "img": "https://i.ibb.co/vXpwQ3t/tp4.jpg",
            "rating": "https://i.ibb.co/vXpwQ3t/tp4.jpg",
            "ratingDesc": "43,156 Ratings & 3,440 Reviews",
            "details": [
                " Designed For: Mobile",
                "Load Capacity: 240 g",
                "Height Range: 42 mm - 156 mm",
                "Material: Plastic"
            ],
            "price": "4500",
            "assured": "true",
            "prevPrice": "5500",
            "discount": "10",
            "EMI": "",
            "exchange": "Upto ₹7,350 Off on Exchange",
            "ram": "8",
            "popularity": "76670"
        },
        "pics": {
            "imgList": [
                "https://i.ibb.co/vXpwQ3t/tp4.jpg",
                "https://i.ibb.co/WyHqqst/tp5.jpg",
                "https://i.ibb.co/vXpwQ3t/tp4.jpg"
            ],
            "brandImg": "https://i.ibb.co/BGCrWDJ/dell-1a.jpg"
        }
    },
    {
        "prod": {
            "id": "TP3",
            "category": "Cameras",
            "brand": "Tripods",
            "name": "casadomani Tripod 3120 Tripod  (Black, Supports Up to 1500 g)",
            "img": "https://i.ibb.co/JrpM08D/tp7.jpg",
            "rating": "https://i.ibb.co/JrpM08D/tp7.jpg",
            "ratingDesc": "43,156 Ratings & 3,440 Reviews",
            "details": [
                "Designed For: Mobile",
                "Load Capacity: 240 g",
                "Height Range: 42 mm - 156 mm",
                "Material: Plastic"
            ],
            "price": "6500",
            "assured": "true",
            "prevPrice": "7500",
            "discount": "16",
            "EMI": "",
            "exchange": "Upto ₹7,350 Off on Exchange",
            "ram": "",
            "popularity": "76670"
        },
        "pics": {
            "imgList": [
                "https://i.ibb.co/JrpM08D/tp7.jpg",
                "https://i.ibb.co/3hgKx6L/tp8.jpg",
                "https://i.ibb.co/YB5RDhr/tp9.jpg"
            ],
            "brandImg": "https://i.ibb.co/PwrxPsv/dell-2a.jpg"
        }
    },
    {
        "prod": {
            "id": "TP4",
            "category": "Cameras",
            "brand": "Tripods",
            "name": "casadomani Tripod 3120 Tripod  (Black, Supports Up to 1500 g)",
            "img": "https://i.ibb.co/5vmR4Qc/tp91.jpg",
            "rating": "https://i.ibb.co/5vmR4Qc/tp91.jpg",
            "ratingDesc": "43,156 Ratings & 3,440 Reviews",
            "details": [
                "Designed For: Mobile",
                "Load Capacity: 240 g",
                "Height Range: 42 mm - 156 mm",
                "Material: Plastic"
            ],
            "price": "3300",
            "assured": "true",
            "prevPrice": "3500",
            "discount": "16",
            "EMI": "",
            "exchange": "Upto ₹7,350 Off on Exchange",
            "ram": "",
            "popularity": "75670"
        },
        "pics": {
            "imgList": [
                "https://i.ibb.co/5vmR4Qc/tp91.jpg",
                "https://i.ibb.co/YPHPz8S/tp92.jpg",
                "https://i.ibb.co/9s1wSct/tp93.jpg"
            ],
            "brandImg": "https://i.ibb.co/5vmR4Qc/tp91.jpg"
        }
    },
    {
        "prod": {
            "id": "TP5",
            "category": "Cameras",
            "brand": "Tripods",
            "name": "Rich Hood New collection Tripod-3110 Adjustable Aluminum Tripod  (Silver & Black, Supports Up to 1500 g)",
            "img": "https://i.ibb.co/JrpM08D/tp7.jpg",
            "rating": "https://i.ibb.co/JrpM08D/tp7.jpg",
            "ratingDesc": "43,156 Ratings & 3,440 Reviews",
            "details": [
                "Designed For: DSLR/SLR Camera, Video Camera, Mobile, Advanced Point & Shoot Camera",
                "Load Capacity: 1500 g",
                "Height Range: 350 mm - 1100 mm",
                "Number of Leg Sections: 3",
                "Material: almunium"
            ],
            "price": "25000",
            "assured": "true",
            "prevPrice": "35000",
            "discount": "16",
            "EMI": "",
            "exchange": "Upto ₹7,350 Off on Exchange",
            "ram": "",
            "popularity": "85000"
        },
        "pics": {
            "imgList": [
                "https://i.ibb.co/JrpM08D/tp7.jpg",
                "https://i.ibb.co/3hgKx6L/tp8.jpg",
                "https://i.ibb.co/YB5RDhr/tp9.jpg"
            ],
            "brandImg": "https://i.ibb.co/JrpM08D/tp7.jpg"
        }
    },
    {
        "prod": {
            "id": "CMP1",
            "category": "Cameras",
            "brand": "Compact",
            "name": "Lavya Pro Compact Camera DSLR Bag Camera Bag  (Red)",
            "img": "https://i.ibb.co/ZhR0Bgn/compac1.jpg",
            "rating": "https://i.ibb.co/ZhR0Bgn/compac1.jpg",
            "ratingDesc": "43,156 Ratings & 3,440 Reviews",
            "details": [
                "Lavya Pro Compact Camera",
                "DSLR Bag",
                "Camera Bag  (Red)"
            ],
            "price": "8500",
            "assured": "true",
            "prevPrice": "9500",
            "discount": "16",
            "EMI": "",
            "exchange": "Upto ₹7,350 Off on Exchange",
            "ram": "",
            "popularity": "76670"
        },
        "pics": {
            "imgList": [
                "https://i.ibb.co/ZhR0Bgn/compac1.jpg",
                "https://i.ibb.co/6ZxvkJr/compac2.jpg",
                "https://i.ibb.co/ZhR0Bgn/compac1.jpg"
            ],
            "brandImg": "https://i.ibb.co/BGCrWDJ/dell-1a.jpg"
        }
    },
    {
        "prod": {
            "id": "CMP2",
            "category": "Cameras",
            "brand": "Compact",
            "name": "Lavya Pro Compact Camera DSLR Bag Camera Bag  (Red)",
            "img": "https://i.ibb.co/HYKqLYJ/compac4.jpg",
            "rating": "https://i.ibb.co/HYKqLYJ/compac4.jpg",
            "ratingDesc": "43,156 Ratings & 3,440 Reviews",
            "details": [
                " Case",
                "DSLR/SLR Camera",
                "Water Resistant"
            ],
            "price": "9500",
            "assured": "true",
            "prevPrice": "10500",
            "discount": "16",
            "EMI": "",
            "exchange": "Upto ₹7,350 Off on Exchange",
            "ram": "",
            "popularity": "88000"
        },
        "pics": {
            "imgList": [
                "https://i.ibb.co/HYKqLYJ/compac4.jpg",
                "https://i.ibb.co/K0BQzB5/compac5.jpg",
                "https://i.ibb.co/Mn1htsf/compac6.jpg"
            ],
            "brandImg": "https://i.ibb.co/wzTpMvh/hp-1a.jpg"
        }
    },
    {
        "prod": {
            "id": "CMP3",
            "category": "Cameras",
            "brand": "Compact",
            "name": "Lavya Pro Compact Camera DSLR Bag Camera Bag  (Red)",
            "img": "https://i.ibb.co/Nn9PsGt/compac8.jpg",
            "rating": "https://i.ibb.co/Nn9PsGt/compac8.jpg",
            "ratingDesc": "43,156 Ratings & 3,440 Reviews",
            "details": [
                " Case",
                "DSLR/SLR Camera",
                "Water Resistant"
            ],
            "price": "9500",
            "assured": "true",
            "prevPrice": "10500",
            "discount": "16",
            "EMI": "",
            "exchange": "Upto ₹7,350 Off on Exchange",
            "ram": "",
            "popularity": "88000"
        },
        "pics": {
            "imgList": [
                "https://i.ibb.co/Nn9PsGt/compac8.jpg",
                "https://i.ibb.co/YRRwM1J/compac9.jpg",
                "https://i.ibb.co/YRRwM1J/compac9.jpg"
            ],
            "brandImg": "https://i.ibb.co/Nn9PsGt/compac8.jpg"
        }
    },
    {
        "prod": {
            "id": "CMP4",
            "category": "Cameras",
            "brand": "Compact",
            "name": "Lavya Pro Compact Camera DSLR Bag Camera Bag  (Red)",
            "img": "https://i.ibb.co/yBp4qH1/camacr91.jpg",
            "rating": "https://i.ibb.co/yBp4qH1/camacr91.jpg",
            "ratingDesc": "43,156 Ratings & 3,440 Reviews",
            "details": [
                "Case",
                "DSLR/SLR Camera",
                "Water Resistant"
            ],
            "price": "9500",
            "assured": "true",
            "prevPrice": "10500",
            "discount": "16",
            "EMI": "",
            "exchange": "Upto ₹7,350 Off on Exchange",
            "ram": "",
            "popularity": "88000"
        },
        "pics": {
            "imgList": [
                "https://i.ibb.co/HYKqLYJ/compac4.jpg",
                "https://i.ibb.co/K0BQzB5/compac5.jpg",
                "https://i.ibb.co/Mn1htsf/compac6.jpg"
            ],
            "brandImg": "https://i.ibb.co/HYKqLYJ/compac4.jpg"
        }
    },
    {
        "prod": {
            "id": "CMP5",
            "category": "Cameras",
            "brand": "Compact",
            "name": "Lavya Pro Compact Camera DSLR Bag Camera Bag (Red)",
            "img": "https://i.ibb.co/ZhR0Bgn/compac1.jpg",
            "rating": "https://i.ibb.co/ZhR0Bgn/compac1.jpg",
            "ratingDesc": "43,156 Ratings & 3,440 Reviews",
            "details": [
                " Case",
                "DSLR/SLR Camera",
                "Water Resistant"
            ],
            "price": "9500",
            "assured": "true",
            "prevPrice": "10500",
            "discount": "16",
            "EMI": "",
            "exchange": "Upto ₹7,350 Off on Exchange",
            "ram": "",
            "popularity": "88000"
        },
        "pics": {
            "imgList": [
                "https://i.ibb.co/ZhR0Bgn/compac1.jpg",
                "https://i.ibb.co/6ZxvkJr/compac2.jpg",
                "https://i.ibb.co/ZhR0Bgn/compac1.jpg"
            ],
            "brandImg": "https://i.ibb.co/ZhR0Bgn/compac1.jpg"
        }
    },
    {
        "prod": {
            "id": "CACR1",
            "category": "Cameras",
            "brand": "Accessories",
            "name": "FeiyuTech Summon+ Handheld (with 16MP - 4K Action Camera) 3 Axis Gimbal  (280 G)",
            "img": "https://i.ibb.co/1rgsGZG/camacr7.jpg",
            "rating": "https://i.ibb.co/1rgsGZG/camacr7.jpg",
            "ratingDesc": "43,156 Ratings & 3,440 Reviews",
            "details": [
                "For Camera",
                "Mobile Lock Mode Present",
                "Comes With Bluetooth"
            ],
            "price": "9500",
            "assured": "true",
            "prevPrice": "10500",
            "discount": "16",
            "EMI": "",
            "exchange": "Upto ₹7,350 Off on Exchange",
            "ram": "",
            "popularity": "88000"
        },
        "pics": {
            "imgList": [
                "https://i.ibb.co/1rgsGZG/camacr7.jpg",
                "https://i.ibb.co/YR05CMk/camacr8.jpg",
                "https://i.ibb.co/9NhnYBg/camacr9.jpg"
            ],
            "brandImg": "https://i.ibb.co/wzTpMvh/hp-1a.jpg"
        }
    },
    {
        "prod": {
            "id": "CACR2",
            "category": "Cameras",
            "brand": "Accessories",
            "name": "SJCAM SJ-Gimbal 2 3 Axis Gimbal (200 G)",
            "img": "https://i.ibb.co/M9kHjNg/camacr4.jpg",
            "rating": "https://i.ibb.co/M9kHjNg/camacr4.jpg",
            "ratingDesc": "43,156 Ratings & 3,440 Reviews",
            "details": [
                "For Camera",
                "Mobile Lock Mode Present",
                "Comes With Bluetooth"
            ],
            "price": "9500",
            "assured": "true",
            "prevPrice": "10500",
            "discount": "16",
            "EMI": "",
            "exchange": "Upto ₹7,350 Off on Exchange",
            "ram": "",
            "popularity": "88000"
        },
        "pics": {
            "imgList": [
                "https://i.ibb.co/M9kHjNg/camacr4.jpg",
                "https://i.ibb.co/6vrVQGj/camacr5.jpg",
                "https://i.ibb.co/qDnMGRW/camacr6.jpg"
            ],
            "brandImg": "https://i.ibb.co/wzTpMvh/hp-1a.jpg"
        }
    },
    {
        "prod": {
            "id": "CACR3",
            "category": "Cameras",
            "brand": "Accessories",
            "name": "FeiyuTech Summon+ Handheld (with 16MP - 4K Action Camera) 3 Axis Gimbal  (280 G)",
            "img": "https://i.ibb.co/1rgsGZG/camacr7.jpg",
            "rating": "https://i.ibb.co/1rgsGZG/camacr7.jpg",
            "ratingDesc": "43,156 Ratings & 3,440 Reviews",
            "details": [
                "For Camera",
                "Mobile Lock Mode Present",
                "Comes With Bluetooth"
            ],
            "price": "9500",
            "assured": "true",
            "prevPrice": "10500",
            "discount": "16",
            "EMI": "",
            "exchange": "Upto ₹7,350 Off on Exchange",
            "ram": "",
            "popularity": "88000"
        },
        "pics": {
            "imgList": [
                "https://i.ibb.co/1rgsGZG/camacr7.jpg",
                "https://i.ibb.co/YR05CMk/camacr8.jpg",
                "https://i.ibb.co/9NhnYBg/camacr9.jpg"
            ],
            "brandImg": "https://i.ibb.co/wzTpMvh/hp-1a.jpg"
        }
    },
    {
        "prod": {
            "id": "CACR4",
            "category": "Cameras",
            "brand": "Accessories",
            "name": "E-Image Q30 Smartphone Mobile Phone Cage Rig Stabilizer Gimbal for Filmmaking with Wide-Angle Lens & Bluetooth Remote for , , , 3 Axis Gimbal  (200 G)",
            "img": "https://i.ibb.co/yBp4qH1/camacr91.jpg",
            "rating": "https://i.ibb.co/yBp4qH1/camacr91.jpg",
            "ratingDesc": "43,156 Ratings & 3,440 Reviews",
            "details": [
                "For Camera",
                "Mobile Lock Mode Present",
                "Comes With Bluetooth"
            ],
            "price": "950",
            "assured": "true",
            "prevPrice": "1050",
            "discount": "16",
            "EMI": "",
            "exchange": "Upto ₹7,350 Off on Exchange",
            "ram": "",
            "popularity": "88000"
        },
        "pics": {
            "imgList": [
                "https://i.ibb.co/1rgsGZG/camacr7.jpg",
                "https://i.ibb.co/YR05CMk/camacr8.jpg",
                "https://i.ibb.co/9NhnYBg/camacr9.jpg"
            ],
            "brandImg": "https://i.ibb.co/wzTpMvh/hp-1a.jpg"
        }
    },
    {
        "prod": {
            "id": "CACR5",
            "category": "Cameras",
            "brand": "Accessories",
            "name": "FeiyuTech Vimble 2 Black Handheld ( Built-In Extender ) 3 Axis Gimbal  (210g)",
            "img": "https://i.ibb.co/yBp4qH1/camacr91.jpg",
            "rating": "https://i.ibb.co/yBp4qH1/camacr91.jpg",
            "ratingDesc": "43,156 Ratings & 3,440 Reviews",
            "details": [
                "For Camera",
                "Mobile Lock Mode Present",
                "Comes With Bluetooth"
            ],
            "price": "9500",
            "assured": "true",
            "prevPrice": "10500",
            "discount": "16",
            "EMI": "",
            "exchange": "Upto ₹7,350 Off on Exchange",
            "ram": "",
            "popularity": "88000"
        },
        "pics": {
            "imgList": [
                "https://i.ibb.co/yBp4qH1/camacr91.jpg",
                "https://i.ibb.co/9WjcfM7/camacr92.jpg",
                "https://i.ibb.co/3f3f0hC/camacr93.jpg"
            ],
            "brandImg": "https://i.ibb.co/wzTpMvh/hp-1a.jpg"
        }
    },
    {
        "prod": {
            "id": "CNTT",
            "category": "Cameras",
            "brand": "DSLR",
            "name": "Sony EOS 3000D DSLR Camera Single Kit with 18-55 lens (16 GB Memory Card & Carry Case)  (Black)",
            "img": "https://i.ibb.co/Q9M7Xph/sony-1.jpg",
            "rating": "https://i.ibb.co/Q9M7Xph/sony-1.jpg",
            "ratingDesc": "43,156 Ratings & 3,440 Reviews",
            "details": [
                "Self-Timer | Type C and Mini HDMI, |9 Auto Focus Points | 35x Optical Zoom., Effective Pixels: 18 MP APS-C CMOS sensor-which is 25 times larger than a typical Smartphone sensor., WiFi | Full HD | Video Recording at 1080 p on 30fps",
                "Effective Pixels: 18 MP",
                " Sensor Type: CMOS",
                " WiFi Available",
                " Full HD"
            ],
            "price": "12500",
            "assured": "true",
            "prevPrice": "13000",
            "discount": "16",
            "EMI": "",
            "exchange": "Upto ₹7,350 Off on Exchange",
            "ram": "",
            "popularity": "76670"
        },
        "pics": {
            "imgList": [
                "https://i.ibb.co/Q9M7Xph/sony-1.jpg",
                "https://i.ibb.co/nMYFw6R/sony-2.jpg",
                "https://i.ibb.co/j5kWYD3/sony-3.jpg"
            ],
            "brandImg": "https://i.ibb.co/Q9M7Xph/sony-1.jpg"
        }
    }
]