[
  {
    "id": "M18",
    "name": "Realme XT (Pearl Blue, 64 GB)",
    "img": "https://i.ibb.co/sQg5Bqd/realme-xt-rmx1921-original-imafk8h2gbyatyyr.jpg",
    "volume": 2
  },
  {
    "id": "M19",
    "name": "Realme 5 (Pearl Blue, 64 GB)",
    "img": "https://i.ibb.co/3sCg6NQ/realme-xt-rmx1921-original-imafk8h2dnnubezk.jpg",
    "volume": 1
  }
]
